<?xml version="1.0" encoding="UTF-8"?>
<!DOCTYPE svg PUBLIC "-//W3C//DTD SVG 1.1//EN" "http://www.w3.org/Graphics/SVG/1.1/DTD/svg11.dtd">
<!-- Creator: CorelDRAW Home & Student X8 -->
<svg xmlns="http://www.w3.org/2000/svg" xml:space="preserve" width="555.725mm" height="153.288mm" version="1.1" style="shape-rendering:geometricPrecision; text-rendering:geometricPrecision; image-rendering:optimizeQuality; fill-rule:evenodd; clip-rule:evenodd"
viewBox="0 0 55571 15328"
 xmlns:xlink="http://www.w3.org/1999/xlink">
 <defs>
  <style type="text/css">
   <![CDATA[
    .str0 {stroke:#373435;stroke-width:19.9996}
    .fil0 {fill:none;fill-rule:nonzero}
   ]]>
  </style>
 </defs>
 <g id="Camada_x0020_1">
  <metadata id="CorelCorpID_0Corel-Layer"/>
  <path class="fil0 str0" d="M28607 4079l709 0 0 -300 -709 0 0 300zm-1095 -1855l-300 0 0 709 300 0 0 -709zm3200 0l-300 0 0 709 300 0 0 -709zm-2105 -1145l709 0 0 300 -709 0 0 -300zm-542 1640c14,0 26,11 26,25 0,13 -11,25 -26,25 -13,0 -25,-12 -25,-25 0,-14 12,-25 25,-25zm0 -330c15,0 26,11 26,25 0,13 -11,25 -26,25 -13,0 -25,-12 -25,-25 0,-14 12,-25 25,-25zm1596 660c138,0 250,111 250,250 0,137 -112,250 -250,250 -138,0 -250,-113 -250,-250 0,-139 112,-250 250,-250zm0 -720c138,0 250,111 250,250 0,137 -112,250 -250,250 -138,0 -250,-113 -250,-250 0,-139 112,-250 250,-250zm0 -720c138,0 250,111 250,250 0,137 -112,250 -250,250 -138,0 -250,-113 -250,-250 0,-139 112,-250 250,-250zm-4249 9300l7100 0 0 2409 -7100 0 0 -2409zm3551 -2440c322,0 584,262 584,585 0,323 -262,585 -584,585 -323,0 -586,-262 -586,-585 0,-323 263,-585 586,-585zm1319 -2953c439,0 795,356 795,795 0,439 -356,795 -795,795 -439,0 -795,-356 -795,-795 0,-439 357,-795 795,-795zm-2639 0c438,0 794,356 794,795 0,439 -356,795 -794,795 -439,0 -795,-356 -795,-795 0,-439 356,-795 795,-795zm-3184 -5161l5 -36 3597 0 0 -300 1500 0 0 300 3900 0 350 3001 -298 35 350 2999 298 -34 350 2999 -298 35 350 3000 298 -35 350 3000 -12497 0 346 -2965 -298 -35 350 -3000 298 35 350 -3000 -298 -34 349 -3000 299 35 349 -3000zm9187 7139c97,0 175,78 175,175 0,96 -78,175 -175,175 -96,0 -175,-79 -175,-175 0,-97 79,-175 175,-175zm-9688 0c96,0 175,78 175,175 0,96 -79,175 -175,175 -97,0 -175,-79 -175,-175 0,-97 78,-175 175,-175zm-4342 -6755c-83,0 -150,67 -150,150 0,82 67,150 150,150 82,0 150,-68 150,-150 0,-83 -68,-150 -150,-150zm-4735 8169c82,0 150,-67 150,-150 0,-82 -68,-150 -150,-150 -83,0 -150,68 -150,150 0,83 67,150 150,150zm7081 -5079l-1300 0 0 -1900 1300 0 0 1900zm-4714 8129c-184,0 -332,-148 -332,-332 0,-184 148,-332 332,-332 184,0 333,148 333,332 0,184 -149,332 -333,332zm4503 3023l-4 38 -3598 0 0 300 -1500 -1 0 -299 -3900 0 -350 -3002 298 -35 -350 -2999 -298 35 -350 -3000 298 -35 -350 -3000 -298 35 -350 -2999 12498 0 -346 2964 298 35 -350 3000 -298 -35 -350 3000 298 35 -350 2999 -298 -35 -350 2999zm-9176 -7137c-97,0 -175,-79 -175,-175 0,-97 78,-175 175,-175 97,0 175,78 175,175 0,96 -78,175 -175,175zm9665 0c-97,0 -175,-79 -175,-175 0,-97 78,-175 175,-175 97,0 175,78 175,175 0,96 -78,175 -175,175zm-4841 6963c-97,0 -175,-78 -175,-175 0,-96 78,-175 175,-175 97,0 175,79 175,175 0,97 -78,175 -175,175zm-15643 -14452l4 -36 3599 0 0 -300 1500 0 0 300 3900 0 350 3001 -298 35 350 2999 298 -34 350 2999 -298 35 350 3000 298 -35 350 3000 -12498 -1 346 -2964 -298 -35 350 -3000 298 35 350 -3000 -298 -34 350 -3000 298 35 349 -3000zm4504 3024c183,0 332,148 332,332 0,184 -149,333 -332,333 -184,0 -333,-149 -333,-333 0,-184 149,-332 333,-332zm4659 4115c97,0 175,78 175,175 0,96 -78,175 -175,175 -97,0 -175,-79 -175,-175 0,-97 78,-175 175,-175zm-9690 0c97,0 175,78 175,175 0,96 -78,175 -175,175 -96,0 -175,-79 -175,-175 0,-97 79,-175 175,-175zm4880 -6975c97,0 175,78 175,175 0,96 -78,175 -175,175 -97,0 -175,-79 -175,-175 0,-97 78,-175 175,-175zm-580 3039c83,0 150,67 150,150 0,83 -67,150 -150,150 -83,0 -150,-67 -150,-150 0,-83 67,-150 150,-150zm203 4714c121,0 218,98 218,219 0,120 -97,218 -218,218 -121,0 -218,-98 -218,-218 0,-121 97,-219 218,-219zm0 571c121,0 218,97 218,218 0,120 -97,218 -218,218 -121,0 -218,-98 -218,-218 0,-121 97,-218 218,-218zm0 570c121,0 218,97 218,218 0,120 -97,218 -218,218 -121,0 -218,-98 -218,-218 0,-121 97,-218 218,-218zm0 570c121,0 218,97 218,218 0,120 -97,218 -218,218 -121,0 -218,-98 -218,-218 0,-121 97,-218 218,-218zm0 570c121,0 218,97 218,218 0,121 -97,218 -218,218 -121,0 -218,-97 -218,-218 0,-121 97,-218 218,-218zm0 570c121,0 218,97 218,218 0,121 -97,218 -218,218 -121,0 -218,-97 -218,-218 0,-121 97,-218 218,-218zm0 570c121,0 218,98 218,218 0,121 -97,218 -218,218 -121,0 -218,-97 -218,-218 0,-120 97,-218 218,-218zm0 570c121,0 218,98 218,218 0,121 -97,218 -218,218 -121,0 -218,-97 -218,-218 0,-120 97,-218 218,-218zm706 -3991c120,0 218,98 218,219 0,120 -98,218 -218,218 -121,0 -219,-98 -219,-218 0,-121 98,-219 219,-219zm0 571c120,0 218,97 218,218 0,120 -98,218 -218,218 -121,0 -219,-98 -219,-218 0,-121 98,-218 219,-218zm0 570c120,0 218,97 218,218 0,120 -98,218 -218,218 -121,0 -219,-98 -219,-218 0,-121 98,-218 219,-218zm0 570c120,0 218,97 218,218 0,120 -98,218 -218,218 -121,0 -219,-98 -219,-218 0,-121 98,-218 219,-218zm0 570c120,0 218,97 218,218 0,121 -98,218 -218,218 -121,0 -219,-97 -219,-218 0,-121 98,-218 219,-218zm0 570c120,0 218,97 218,218 0,121 -98,218 -218,218 -121,0 -219,-97 -219,-218 0,-121 98,-218 219,-218zm0 570c120,0 218,98 218,218 0,121 -98,218 -218,218 -121,0 -219,-97 -219,-218 0,-120 98,-218 219,-218zm0 570c120,0 218,98 218,218 0,121 -98,218 -218,218 -121,0 -219,-97 -219,-218 0,-120 98,-218 219,-218zm672 -2850c121,0 219,97 219,218 0,120 -98,218 -219,218 -120,0 -218,-98 -218,-218 0,-121 98,-218 218,-218zm0 570c121,0 219,97 219,218 0,120 -98,218 -219,218 -120,0 -218,-98 -218,-218 0,-121 98,-218 218,-218zm706 -570c121,0 218,97 218,218 0,120 -97,218 -218,218 -120,0 -218,-98 -218,-218 0,-121 98,-218 218,-218zm0 570c121,0 218,97 218,218 0,120 -97,218 -218,218 -120,0 -218,-98 -218,-218 0,-121 98,-218 218,-218zm-3424 -570c121,0 218,97 218,218 0,120 -97,218 -218,218 -121,0 -218,-98 -218,-218 0,-121 97,-218 218,-218zm0 570c121,0 218,97 218,218 0,120 -97,218 -218,218 -121,0 -218,-98 -218,-218 0,-121 97,-218 218,-218zm706 -570c120,0 218,97 218,218 0,120 -98,218 -218,218 -121,0 -219,-98 -219,-218 0,-121 98,-218 219,-218zm0 570c120,0 218,97 218,218 0,120 -98,218 -218,218 -121,0 -219,-98 -219,-218 0,-121 98,-218 219,-218zm45758 2789l-1396 0 0 -1145 300 0 0 -709 -300 0 0 -1146 1396 0 0 300 709 0 0 -300 1395 0 0 1146 -300 0 0 709 300 0 0 1145 -1395 0 0 -300 -709 0 0 300zm-1585 -2349l-300 0 0 709 300 0 0 495 -1395 0 0 300 -709 0 0 -300 -1096 0 0 -495 -300 0 0 -709 300 0 0 -496 1096 0 0 -300 709 0 0 300 1395 0 0 496zm-3544 3147l300 0 0 -709 -300 0 0 -496 1396 0 0 -300 709 0 0 300 1095 0 0 496 300 0 0 709 -300 0 0 495 -1095 0 0 300 -709 0 0 -300 -1396 0 0 -495zm3968 754l300 0 0 -709 -300 0 0 -496 1146 0 0 -300 709 0 0 300 845 0 0 496 300 0 0 709 -300 0 0 495 -845 0 0 300 -709 0 0 -300 -1146 0 0 -495zm4905 -1634l0 -300 -709 0 0 300 -496 0 0 -1145 -300 0 0 -709 300 0 0 -846 496 0 0 -300 709 0 0 300 495 0 0 846 300 0 0 709 -300 0 0 1145 -495 0zm961 -12680l0 3900 -300 0 0 1500 300 0 0 3900 -3900 0 0 -300 -1500 0 0 300 -3899 0 0 -3900 300 0 0 -1500 -300 0 0 -3900 3899 0 0 300 1500 0 0 -300 3900 0zm-6150 1300l3000 0 0 500 -3000 0 0 -500zm-2485 3175c97,0 175,78 175,175 0,97 -78,175 -175,175 -96,0 -175,-78 -175,-175 0,-97 79,-175 175,-175zm7983 0c97,0 175,78 175,175 0,97 -78,175 -175,175 -97,0 -175,-78 -175,-175 0,-97 78,-175 175,-175zm-36715 3034c83,0 150,67 150,150 0,82 -67,150 -150,150 -83,0 -150,-68 -150,-150 0,-83 67,-150 150,-150zm16952 325c-97,0 -175,-79 -175,-175 0,-97 78,-175 175,-175 97,0 175,78 175,175 0,96 -78,175 -175,175zm9672 0c-97,0 -175,-79 -175,-175 0,-97 78,-175 175,-175 96,0 175,78 175,175 0,96 -79,175 -175,175zm-5815 4724l-600 0 0 -1099 600 0 0 1099zm5325 2413l-4 38 -3599 0 0 300 -1500 -1 0 -299 -3900 0 -350 -3002 298 -35 -350 -2999 -298 35 -350 -3000 298 -35 -350 -3000 -298 35 -350 -2999 12498 0 -346 2964 298 35 -350 3000 -298 -35 -350 3000 298 35 -350 2999 -298 -35 -349 2999zm-1671 -3062c-83,0 -150,-68 -150,-150 0,-83 67,-150 150,-150 83,0 150,67 150,149 0,83 -67,151 -150,151zm-1950 150c-166,0 -300,-135 -300,-300 0,-166 134,-301 300,-300 166,0 300,134 300,300 0,165 -134,300 -300,300zm-4753 -4360c-83,0 -150,-67 -150,-150 0,-83 67,-150 150,-150 83,0 150,67 150,150 0,83 -67,150 -150,150zm0 -5480c-83,0 -150,-67 -150,-150 0,-83 67,-150 150,-150 83,0 150,67 150,150 0,83 -67,150 -150,150zm7696 -106c-83,0 -150,-67 -150,-150 0,-83 67,-150 150,-150 83,0 150,67 150,150 0,83 -67,150 -150,150zm44 5586c-83,0 -150,-67 -150,-150 0,-83 67,-150 150,-150 83,0 150,67 150,150 0,83 -67,150 -150,150zm-8228 -6327c-188,0 -340,-152 -340,-340 0,-187 152,-340 340,-340 188,0 340,153 340,340 0,188 -152,340 -340,340zm8267 -190l-4300 0 0 -300 4300 0 0 300zm0 7500l-4300 0 0 -300 4300 0 0 300zm-61 -5016c-16,0 -29,-13 -29,-29 0,-16 13,-28 29,-28 16,0 29,12 29,28 0,16 -13,29 -29,29zm-5100 -1500c-16,0 -29,-13 -29,-29 0,-15 13,-28 29,-28 16,0 29,13 29,28 0,16 -13,29 -29,29zm5100 4401c-16,0 -29,-13 -29,-29 0,-16 13,-29 29,-29 16,0 29,13 29,29 0,16 -13,29 -29,29zm-5200 500c-16,0 -29,-13 -29,-29 0,-16 13,-29 29,-29 16,0 29,13 29,29 0,16 -13,29 -29,29z"/>
 </g>
</svg>
